<?xml version="1.0" encoding="utf-8"?>
<svg version="1.1" id="Layer_2" xmlns="http://www.w3.org/2000/svg" xmlns:xlink="http://www.w3.org/1999/xlink" x="0px" y="0px"
	 viewBox="0 0 557 178" width="557" height="178" style="enable-background:new 0 0 557 178;" xml:space="preserve">
<style type="text/css">
	.st0{fill:#283738;}
	.st1{fill:#212C2E;}
	.st2{fill:#283537;}
	.st3{display:none;}
</style>
<polygon class="st0" points="58.3,91.9 84.6,64.5 114.2,62.9 "/>
<polygon class="st1" points="0,132.7 30,120.9 50.8,103.1 58.3,91.9 114.2,62.9 116.5,61.7 117.7,61.8 156.2,94.4 185.5,50.8 
	220.7,65.7 229.1,32.7 294.3,65.1 341,47.7 380.9,24 394.6,7.8 418,0.6 426.7,23 476.9,51.1 503,99 509.6,111.3 534.9,106.3 
	557,178 0,178 "/>
<polygon class="st0" points="0,132.7 29.9,120.9 50.8,103.2 57.7,93 43.7,94.4 28.9,112 "/>
<polygon class="st0" points="185.5,50.8 220.7,65.7 229.1,32.7 202,49 "/>
<polygon class="st0" points="294.3,65.1 323.9,35.1 376,6.3 418,0.6 394.6,7.8 380.9,24 341,47.7 "/>
<polygon class="st2" points="534.9,106.3 503,99 509.6,111.3 "/>
<g id="Layer_1" class="st3">
	<image style="display:inline;overflow:visible;" width="557" height="178" xlink:href="footer-bg.jpg" >
	</image>
</g>
<g id="Layer_3">
	<polygon class="st0" points="160,101.1 188,92.2 188.7,102.6 205,103.1 199.9,121.8 173.1,110.8 	"/>
</g>
</svg>
