<?xml version="1.0" encoding="utf-8"?>
<!-- Generator: Adobe Illustrator 19.1.0, SVG Export Plug-In . SVG Version: 6.00 Build 0)  -->
<svg version="1.1" id="Layer_1" xmlns="http://www.w3.org/2000/svg" xmlns:xlink="http://www.w3.org/1999/xlink" x="0px" y="0px"
	 viewBox="0 0 64 64" style="enable-background:new 0 0 64 64;" xml:space="preserve">
<style type="text/css">
	.st0{fill:#E11F26;}
</style>
<path class="st0" d="M48.1,34.3c-0.2-0.5-0.5-0.9-0.9-1.3l-23-23c-1.8-1.8-4.7-1.8-6.5,0L17,10.8c-1.8,1.8-1.8,4.7,0,6.5l18.2,18.2
	c0.2,0.2,0.2,0.6,0,0.8L17,54.5c-1.8,1.8-1.8,4.7,0,6.5l0.7,0.7c1.8,1.8,4.7,1.8,6.5,0l23-23C48.4,37.5,48.6,35.8,48.1,34.3z"/>
</svg>
